<?xml version="1.0" standalone="no"?>
<svg width="250" height="250" version="1.1"
     xmlns="http://www.w3.org/2000/svg">

<g>
  <g id="stove" transform="translate(5,5) scale(0.7)">
    <path id="front" style="stroke:#000000;stroke-width:2;fill:#FFFFFF;"
      d="M 18,200 L 158,200 L 158,75 L 18,75 L 18,200 M 18,100 L 158,100" />
    <path id="top" style="stroke:#000000;stroke-width:2;fill:#FFFFFF;"
      d=" M 18,75 L 40,35 L 132,35 L 158,75 z" />
    <path id="backstop" style="stroke:#000000;stroke-width:2;fill:#FFFFFF;"
      d="M 40,35 L 40,13 L 132,13 L 132,35 z" />
    <path id="door" style="stroke:#000000;stroke-width:2;fill:#BBBBBB;"
      d="M 36,183 L 36, 126 L 140,126 L 140,183 L 36,183" />
    <path id="handle" style="stroke:#000000;stroke-width:10;stroke-linecap:round;"
      d="M 31,115 L 145,115" />
    <g id="burner1" transform="translate(40,55)">
      <ellipse style="stroke:#000000;stroke-width:2;fill:#E9E9E9;"
        cx="17" cy="6" rx="17" ry="6" />
      <path style="stroke:#000000;stroke-width:2;fill:none;"
        d="M 0,6 L 34,6 M 7,2 27,10 M 27,2 L 7,10" />
    </g>
    <g id="burner2" transform="translate(100,55)">
      <ellipse style="stroke:#000000;stroke-width:2;fill:#E9E9E9;"
        cx="17" cy="6" rx="17" ry="6" />
      <path style="stroke:#000000;stroke-width:2;fill:none;"
        d="M 0,6 L 34,6 M 7,2 27,10 M 27,2 L 7,10" />
    </g>
    <g id="burner3" transform="translate(49,40)scale(0.8)">
      <ellipse style="stroke:#000000;stroke-width:2;fill:#E9E9E9;"
        cx="17" cy="6" rx="17" ry="6" />
      <path style="stroke:#000000;stroke-width:2;fill:none;"
        d="M 0,6 L 34,6 M 7,2 27,10 M 27,2 L 7,10" />
    </g>
    <g id="burner4" transform="translate(99,40)scale(0.8)">
      <ellipse style="stroke:#000000;stroke-width:2;fill:#E9E9E9;"
        cx="17" cy="6" rx="17" ry="6" />
      <path style="stroke:#000000;stroke-width:2;fill:none;"
        d="M 0,6 L 34,6 M 7,2 27,10 M 27,2 L 7,10" />
    </g>
    <g id="dials">
      <circle cx="40" cy="87" r="5" />
      <circle cx="62" cy="87" r="5" />
      <circle cx="114" cy="87" r="5" />
      <circle cx="135" cy="87" r="5" />
    </g>
    <text x="75" y="30" style="font: 12px sans-serif">450&#176;</text>
  </g>

  <g id="generic" transform="translate(120,90) scale(0.7)">
    <path id="front" style="stroke:#000000;stroke-width:2;fill:#FFFFFF;"
      d="M 18,200 L 158,200 L 158,75 L 18,75 L 18,200" />
    <path id="top" style="stroke:#000000;stroke-width:2;fill:#FFFFFF;"
      d=" M 18,75 L 40,35 L 132,35 L 158,75 z
      M 28,70 L 45,40 L 128,40 L 148,70 z" />
    <path id="backstop" style="stroke:#000000;stroke-width:2;fill:#FFFFFF;"
      d="M 40,35 L 40,13 L 132,13 L 132,35 z" />
    <circle style="stroke:#000000;stroke-width:2;fill:#FFFFFF;"
      cx="88" cy="138" r="45" />
    <path id="whistle1" transform="translate(125,80)"
        style="stroke:#000000;stroke-width:2;fill:#FFFFFF;"
        d="M 12,26 L 12,10 L 19,10 L 19,14 L 15,19 L 19,19 L 19,26 L 12,26
        M 10,10 L 16,3 L 21,10 L 10,10
        M 14,26 L 17,26 L 17,29 L 14,29 L 14,26" />
    <path id="whistle2" transform="translate(18,160)"
        style="stroke:#000000;stroke-width:2;fill:#FFFFFF;"
        d="M 12,26 L 12,10 L 19,10 L 19,14 L 15,19 L 19,19 L 19,26 L 12,26
        M 10,10 L 16,3 L 21,10 L 10,10
        M 14,26 L 17,26 L 17,29 L 14,29 L 14,26" />
      <g id="bell1" transform="translate(20,80)">
        <circle style="stroke:#000000;stroke-width:2;fill:#FFFFFF;"
          cx="15" cy="23" r="4" />
        <path style="stroke:#000000;stroke-width:2;fill:#FFFFFF;"
          d="M 3,23 C 11,23 6,7 15,7 C 24,7 19,23 27,23 L 3,23" />
        <circle style="stroke:#000000;stroke-width:2;fill:#FFFFFF;"
          cx="15" cy="5" r="2" />
      </g>
      <g id="bell2" transform="translate(125,165)">
        <circle style="stroke:#000000;stroke-width:2;fill:#FFFFFF;"
          cx="15" cy="23" r="4" />
        <path style="stroke:#000000;stroke-width:2;fill:#FFFFFF;"
          d="M 3,23 C 11,23 6,7 15,7 C 24,7 19,23 27,23 L 3,23" />
        <circle style="stroke:#000000;stroke-width:2;fill:#FFFFFF;"
          cx="15" cy="5" r="2" />
      </g>
    </g>

</g>
</svg>
