<?xml version="1.0" standalone="no"?>
<svg width="250" height="250" version="1.1"
     xmlns="http://www.w3.org/2000/svg">

<g>
	<path d="M 25,25 Q 150,100 225,225 L 25,225 z"/>
	
	<!-- battens -->
	<path d="M 50,70 L 80,63" style="stroke:#FFFFFF; stroke-dasharray:4,3; stroke-width:4;" />
	<path d="M 65,115 L 125,100" style="stroke:#FFFFFF; stroke-dasharray:4,3; stroke-width:4;" />
	<path d="M 80,150 L 155,132" style="stroke:#FFFFFF; stroke-dasharray:4,3; stroke-width:4;" />
	
</g>
</svg>