<?xml version="1.0" standalone="no"?>
<svg width="250" height="250" version="1.1"
     xmlns="http://www.w3.org/2000/svg">

<g>

  <rect id="waterline" style="stroke:#666666;stroke-width:1;fill:#666666;"
    x="0" y="135" width="250" height="115" />
  <path id="hullOutline" style="stroke:#000000;stroke-width:2;fill:#000000;"
    d="M 28,52 L 47,154 C 55,183 89,190 125,191 C 161,190 195,183 203,154
      L 222,52 L 28,52" />
  <path id="bilgeArea" style="stroke:#none;fill:#FFFFFF;"
    d="M 47,154 C 55,183 89,190 125,191 C 161,190 195,183 203,154 z" />

  <g transform="translate(50,170) rotate(45)">
		<path d="M 25,0 L 50,25 L 35,25 L 35,50 L 15,50 L 15,25 L 0,25 L 25,0"
			style="stroke:#000000;stroke-width:1;fill:#FFFFFF;"/>
  </g>
  <g transform="translate(155,210) rotate(-45)">
		<path d="M 25,0 L 50,25 L 35,25 L 35,50 L 15,50 L 15,25 L 0,25 L 25,0"
			style="stroke:#000000;stroke-width:1;fill:#FFFFFF;"/>
  </g>

</g>
</svg>
