<?xml version="1.0" standalone="no"?>	
<svg width="250" height="250" version="1.1"
     xmlns="http://www.w3.org/2000/svg">

<g>
	<path d="M 11,159 L 186,113 L 224,139 L 36,201 z"
		style="stroke:#000000;stroke-width:2;fill:#FFFFFF;" />
	<path d="M 11,159 L 11,177 L 36,218 L 224,155 L 224,139 L 36,201 z"
		style="stroke:#000000;stroke-width:2;fill:#333333;" />
	<path d="M 43,78 L 43,165 Q 74,178 94,161 L 94,77 z"
		style="stroke:#000000;stroke-width:2;fill:#FFFFFF;" />
	<ellipse id="seatInner" style="stroke:#000000;stroke-width:2;fill:#FFFFFF;"
        cx="68" cy="78" rx="33" ry="11" />
	<path d="M 144,64 L 144,137 Q 165,153 187,138 L 187,64 z"
		style="stroke:#000000;stroke-width:2;fill:#FFFFFF;" />
	<ellipse id="seatInner" style="stroke:#000000;stroke-width:2;fill:#FFFFFF;"
        cx="165" cy="63" rx="30" ry="10" />
</g>
</svg>