<?xml version="1.0" standalone="no"?>	
<svg width="250" height="250" version="1.1"
     xmlns="http://www.w3.org/2000/svg">

<g>
	<path d="M 198,71 L 198,105 L 158,65 L 159,31 z"
		style="stroke:#000000;stroke-width:2;fill:#FFFFFF;" />
	<g transform="translate(-40,-40)">
	<path d="M 198,71 L 115,142 Q 87,162 81,196 Q 81,205 94,205 Q 109,202 123,186
		L 198,105 L 198,71"
		style="stroke:#000000;stroke-width:2;fill:#FFFFFF;" />
	</g>
		
	<ellipse cx="86" cy="128" rx="40" ry="15"
		style="stroke:#000000;stroke-width:2;fill:#FFFFFF;" transform="rotate(-42 86 128)" />
	<path d="M 111,110 Q 112,123 131,130 L 90,166 Q 87,148 70,149 Q 83,123 111,110"
		style="stroke:#000000;stroke-width:2;fill:#FFFFFF;" />
		
	<path d="M 198,71 L 115,142 Q 87,162 81,196 Q 81,205 94,205 Q 109,202 123,186
		L 198,105 L 198,71"
		style="stroke:#000000;stroke-width:2;fill:#FFFFFF;" />
	<ellipse cx="120" cy="166" rx="15" ry="7"
		style="fill:#000000;" transform="rotate(-42 120 166)" />
	
</g>
</svg>