<?xml version="1.0" standalone="no"?>
<svg width="250" height="250" version="1.1"
     xmlns="http://www.w3.org/2000/svg">

<g>
	<path d="M 20,90 L 230,90 Q 230,130 210,130 C 80,140 30,120 20,90" />
	
	<path d="M 110,130 L 110,115 L 170,115 L 170,131"
		style="stroke:#AAAAAA;stroke-width:2;stroke-dasharray:5,5;fill:#CCCCCC;" />
	
	<path d="M 135,115 L 168,115 L 168,130 L 135,135 C 105,135 105,115 135,115 z"
		style="stroke:#000000;stroke-width:2;stroke-dasharray:3,3;fill:#FFFFFF" />
	<path d="M 110,130 L 120,170 L 135,170 L 135,130 C 135,110 110,110 110,130 z"
		style="stroke:#000000;stroke-width:2;fill:#FFFFFF" />
	<circle cx="122" cy="125" r="2" />
	
	<path transform="scale(0.3) rotate(45 125 125) translate(630,70)"
		d="M 25,0 L 50,25 L 35,25 L 35,50 L 15,50 L 15,25 L 0,25 L 25,0" 
			style="stroke:#000000;stroke-width:2;fill:#FFFFFF"/>
	<path transform="scale(0.3, -0.3) rotate(-45 125 125) translate(850,-80)"
		d="M 25,0 L 50,25 L 35,25 L 35,50 L 15,50 L 15,25 L 0,25 L 25,0" 
			style="stroke:#000000;stroke-width:2;fill:#FFFFFF"/>

</g>
</svg>