<?xml version="1.0" standalone="no"?>
<svg width="250" height="250" version="1.1"
     xmlns="http://www.w3.org/2000/svg">

<style type="text/css">
    <![CDATA[
		path {
			stroke:#000000;
			stroke-width:2;
			fill: #FFFFFF;
		}
	]]>
</style>

<g>
	<path d="M 73,168 L 112,196 C 126,203 148,184 137,173 L 108,148" />
	<path d="M 138,129 L 170,151 C 183,160 205,143 194,132 L 167,108" />
	<path d="M 147,120 L 154,127 Q 165,130 173,124 L 173,104" />
	<path d="M 85,161 L 97,170 Q 107,174 115,168 L 115,147" />
	<path d="M 19,171 Q 17,177 19,183 Q 28,187 37,183 C 106,160 180,105 225,57 Q 227,52 226,48" />
	<path d="M 19,171 C 68,135 173,64 212,43 C 217,41 226,44 226,48 C 190,98 88,153 35,178 
		C 20,182 20,180 19,171" />
	<ellipse cx="120" cy="182" rx="9" ry="6" />
	<ellipse cx="179" cy="138" rx="9" ry="6" />
</g>
</svg>