<?xml version="1.0" standalone="no"?>
<svg width="250" height="250" version="1.1"
     xmlns="http://www.w3.org/2000/svg">

<g>
	<path d="M 16,16 L 16,120 L 100,120 Q 75,55 16,16 " />
	<path d="M 200,150 L 115,150 L 85,220 Q 158,200 230,220 L 200,150" />
	
	<path d="M 22,28 L 22,105" style="stroke: #FFFFFF; stroke-width:4;" />
	<path d="M 30,112 L 90,112" style="stroke: #FFFFFF; stroke-width:4;" />
	<path d="M 85,105 Q 65,60 30,35" style="stroke: #FFFFFF; stroke-width:4;" />
	
	<path d="M 195,155 L 120,155" style="stroke: #FFFFFF; stroke-width:4;" />
	<path d="M 200,160 L 220,210" style="stroke: #FFFFFF; stroke-width:4;" />
	<path d="M 115,160 L 95,210" style="stroke: #FFFFFF; stroke-width:4;" />
	<path d="M 103,208 Q 158,195 212,208" style="stroke: #FFFFFF; stroke-width:4;" />
</g>
</svg>