<?xml version="1.0" standalone="no"?>
<svg width="250" height="250" version="1.1"
     xmlns="http://www.w3.org/2000/svg">

<g>
	<path d="M 36,180 L 218,180 L 218,205 L 55,205 z" />
	
	<path d="M 70,180 L 70,50 L 74,50 L 74,180 z" style="stroke:#000000;stroke-width:2;fill:#FFFFFF;" />
	<path d="M 120,180 L 120,20 L 124,20 L 124,180 z" />
	<path d="M 175,180 L 175,50 L 179,50 L 179,180 z" />
</g>
</svg>