<?xml version="1.0" standalone="no"?>
<svg width="250" height="250" version="1.1"
     xmlns="http://www.w3.org/2000/svg">

<g>
	<path d="M 36,180 L 218,180 L 218,205 L 55,205 z" />
	
	<path d="M 80,180 L 80,20 L 84,20 L 84,180 z" />
	<path d="M 175,180 L 175,50 L 179,50 L 179,180 z" />
	
	<path d="M 38,180 L 10,170 L 6,174 L 32,184 L 48,190" />
	<path d="M 60,45 L 104,45 L 104,49 L 60,49 L 60,45" />
	<path d="M 40,100 L 124,100 L 124,104 L 40,104 L 40,100" />
	<path d="M 179,160 L 230,160 L 230,156 L 179,156 L 179,160" />
	<path d="M 179,120 L 225,100 L 221,97 L 179,116 L 179,120" style="stroke:#000000;stroke-width:2;fill:#FFFFFF;" />
</g>
</svg>