<?xml version="1.0" standalone="no"?>
<svg width="250" height="250" version="1.1"
     xmlns="http://www.w3.org/2000/svg">

<g>
  <g id="stove" transform="translate(125,50) scale(0.7)">
    <path id="front" style="stroke:#000000;stroke-width:2;fill:#FFFFFF;"
      d="M 18,200 L 158,200 L 158,75 L 18,75 L 18,200 M 18,100 L 158,100" />
    <path id="top" style="stroke:#000000;stroke-width:2;fill:#FFFFFF;"
      d=" M 18,75 L 40,35 L 132,35 L 158,75 z" />
    <path id="backstop" style="stroke:#000000;stroke-width:2;fill:#FFFFFF;"
      d="M 40,35 L 40,13 L 132,13 L 132,35 z" />
    <path id="door" style="stroke:#000000;stroke-width:2;fill:#BBBBBB;"
      d="M 36,183 L 36, 126 L 140,126 L 140,183 L 36,183" />
    <path id="handle" style="stroke:#000000;stroke-width:10;stroke-linecap:round;"
      d="M 31,115 L 145,115" />
    <g id="burner1" transform="translate(40,55)">
      <ellipse style="stroke:#000000;stroke-width:2;fill:#E9E9E9;"
        cx="17" cy="6" rx="17" ry="6" />
      <path style="stroke:#000000;stroke-width:2;fill:none;"
        d="M 0,6 L 34,6 M 7,2 27,10 M 27,2 L 7,10" />
    </g>
    <g id="burner2" transform="translate(100,55)">
      <ellipse style="stroke:#000000;stroke-width:2;fill:#E9E9E9;"
        cx="17" cy="6" rx="17" ry="6" />
      <path style="stroke:#000000;stroke-width:2;fill:none;"
        d="M 0,6 L 34,6 M 7,2 27,10 M 27,2 L 7,10" />
    </g>
    <g id="burner3" transform="translate(49,40)scale(0.8)">
      <ellipse style="stroke:#000000;stroke-width:2;fill:#E9E9E9;"
        cx="17" cy="6" rx="17" ry="6" />
      <path style="stroke:#000000;stroke-width:2;fill:none;"
        d="M 0,6 L 34,6 M 7,2 27,10 M 27,2 L 7,10" />
    </g>
    <g id="burner4" transform="translate(99,40)scale(0.8)">
      <ellipse style="stroke:#000000;stroke-width:2;fill:#E9E9E9;"
        cx="17" cy="6" rx="17" ry="6" />
      <path style="stroke:#000000;stroke-width:2;fill:none;"
        d="M 0,6 L 34,6 M 7,2 27,10 M 27,2 L 7,10" />
    </g>
    <g id="dials">
      <circle cx="40" cy="87" r="5" />
      <circle cx="62" cy="87" r="5" />
      <circle cx="114" cy="87" r="5" />
      <circle cx="135" cy="87" r="5" />
    </g>
    <text x="75" y="30" style="font: 12px sans-serif">450&#176;</text>
  </g>

  <g id="reefer" transform="translate(0,23) scale(0.8)">
    <rect style="stroke:#000000;stroke-width:2;fill:#FFFFFF;"
      x="65" y="30" height="180" width="85" />
    <path id="door" style="stroke:#000000;stroke-width:2;fill:#FFFFFF;"
      d="M 65,210 L 38,220 L 38, 58 L 65,77 z" />
    <path id="shelfDividers" style="stroke:#000000;stroke-width:4;fill:none;"
      d="M 65,77 L 150,77 M 65,127 L 150,127 M 65,170 L 150,170 M 140,45 L 140,65" />
    <path id="milkJug" style="stroke:#000000;stroke-width:2;fill:#FFFFFF;"
      d="M 76,127 L 76,96 L 86,88 L 86,82 L 86,88 L 95,96 L 95,127 z M 76,102 L 95,110 M 76,111 L 95,119" />
    <path id="drinkBottle" style="stroke:#000000;stroke-width:2;fill:#FFFFFF;"
      d="M 111,127 L 111,105 L 115,98 L 116,86 L 122,86 L 123,98 L 127,105 L 127,127 z
      M 115,85 L 116,83 L 123,83 L 124,85 z M 120,105 L 120,120 L 124,120 L 124,105 z" />
    <ellipse id="egg1" style="stroke:#000000;stroke-width:2;fill:#FFFFFF;" cx="90" cy="158" rx="5" ry="7" />
    <ellipse id="egg2" style="stroke:#000000;stroke-width:2;fill:#FFFFFF;" cx="100" cy="158" rx="5" ry="7" />
    <ellipse id="egg3" style="stroke:#000000;stroke-width:2;fill:#FFFFFF;" cx="110" cy="158" rx="5" ry="7" />
    <ellipse id="egg4" style="stroke:#000000;stroke-width:2;fill:#FFFFFF;" cx="120" cy="158" rx="5" ry="7" />
    <path id="cartonOfEggs" style="stroke:#000000;stroke-width:2;fill:#FFFFFF;"
      d="M 80,158 L 83,170 L 128,170 L 131,158 z" />
  </g>

</g>
</svg>
