<?xml version="1.0" standalone="no"?>	
<svg width="250" height="250" version="1.1"
     xmlns="http://www.w3.org/2000/svg">

<g>
	<!-- deck and gunnel outline -->
	<path d="M -1,240 L 125,30 L 251,240 L 251,251 L -1,251 z"
		style="stroke:#000000;stroke-width:2;fill:#FFFFFF;" />
	<path d="M 125,30 L 125,15 L 251,209 L 251,240 z"
		style="stroke:#000000;stroke-width:2;fill:#FFFFFF;" />
	<path d="M 125,30 L 125,15 L -1,209 L -1,240 z"
		style="stroke:#000000;stroke-width:2;fill:#FFFFFF;" />
	<!-- rail and stanchions -->
	<line x1="125" y1="15" x2="125" y2="0"
		style="stroke:#000000;stroke-width:1;" />
	<line x1="147" y1="0" x2="250" y2="135" 
		style="stroke:#000000;stroke-width:1;" />
	<line x1="242" y1="125" x2="246" y2="200" 
		style="stroke:#000000;stroke-width:1;" />
	<line x1="191" y1="59" x2="195" y2="124" 
		style="stroke:#000000;stroke-width:1;" />
	<line x1="159" y1="16" x2="163" y2="72" 
		style="stroke:#000000;stroke-width:1;" />
	<line x1="103" y1="0" x2="0" y2="135" 
		style="stroke:#000000;stroke-width:1;" />
	<line x1="8" y1="125" x2="4" y2="200" 
		style="stroke:#000000;stroke-width:1;" />
	<line x1="59" y1="59" x2="55" y2="124" 
		style="stroke:#000000;stroke-width:1;" />
	<line x1="91" y1="16" x2="87" y2="72" 
		style="stroke:#000000;stroke-width:1;" />
	<!-- deck "feature" -->
	<path d="M 85,138 L 165,138 L 206,220 L 44,220 z"
		style="stroke:#000000;stroke-width:1;fill:#FFFFFF;" />
		
	<!-- the actual hawses -->
	<g transform="rotate(-25) translate(-28,60)">
		<ellipse cx="125" cy="65" rx="6" ry="12"
			style="stroke:#000000;stroke-width:2;fill:#999999;" />
	</g>
	<g transform="rotate(25) translate(5,-47)">
		<ellipse cx="125" cy="65" rx="6" ry="12"
			style="stroke:#000000;stroke-width:2;fill:#999999;" />
	</g>
	
	<g transform="scale(0.5) translate(195,180) rotate(-10)">
		<path d="M 25,0 L 50,25 L 35,25 L 35,50 L 15,50 L 15,25 L 0,25 L 25,0" 
			style="stroke:#000000;stroke-width:2;fill:#FF0000"/>
	</g>
	<g transform="scale(0.5) translate(255,170) rotate(10)">
		<path d="M 25,0 L 50,25 L 35,25 L 35,50 L 15,50 L 15,25 L 0,25 L 25,0" 
			style="stroke:#000000;stroke-width:2;fill:#FF0000"/>
	</g>

	
</g>
</svg>