<?xml version="1.0" standalone="no"?>
<svg width="250" height="250" version="1.1"
     xmlns="http://www.w3.org/2000/svg">

<g>

	<g transform="scale(0.5)">
		<path d="M 250,215 L 30,215 L 70,250 L 250,250 z" />
		<path d="M 220,215 L 220,10 L 222,10 L 222,215 z" />
		<line x1="220" y1="15" x2="32" y2="215" style="stroke:#000000;stroke-width:5;" />
		
		<path d="M 215,20 L 37,210 Q 145,185 190,185 L 215,20" 
			style="stroke:#000000;stroke-width:2;fill:#FFFFFF;" />
	</g>

	<g transform="scale(0.5) translate(250,250)">
		<path d="M 250,215 L 30,215 L 70,250 L 250,250 z" />
		<path d="M 220,215 L 220,10 L 222,10 L 222,215 z" />
		<line x1="220" y1="15" x2="32" y2="215" style="stroke:#000000;" />
		
		<path d="M 220,20 C 128,31 23,138 25,205 C 46,210 111,203 145,187 C 134,162 166,82 220,20 " 
			style="stroke:#000000;stroke-width:2;fill:#FFFFFF;" />
	</g>
</g>
</svg>