<?xml version="1.0" standalone="no"?>
<svg width="250" height="250" version="1.1"
     xmlns="http://www.w3.org/2000/svg">

<g>
  <g id="head" transform="translate(0,70) scale(1.5)">
	   <path id="tank" style="stroke:#000000;stroke-width:2;fill:#FFFFFF;"
       d="M 20,28 Q 20,24 24,24 L 62,24 Q 66,24 66,28 L 66,52 Q 66,56 62,56
       L 24,56 Q 20,56 20,52 L 20,28" />
    <path id="lid" style="stroke:#000000;stroke-width:2;fill:#FFFFFF;"
      d="M 28,58 C 21,49, 22,24 34,17 Q 43,14 52,17 C 64,24 65,49 58,58" />
    <path id="base" style="stroke:#000000;stroke-width:2;fill:#FFFFFF;"
      d="M 34,81 L 32,100 L 54,100 L 52,81" />
    <path id="bowl" style="stroke:#000000;stroke-width:2;fill:#FFFFFF;"
      d="M 18,65 C 25,90 61,90 68,65" />
    <ellipse id="seatOuter" style="stroke:#000000;stroke-width:2;fill:#FFFFFF;"
      cx="43" cy="65" rx="25" ry="10" />
    <ellipse id="seatInner" style="stroke:#000000;stroke-width:2;fill:#FFFFFF;"
        cx="43" cy="65" rx="16" ry="4" />
  </g>
  <line x1="125" y1="0" x2="125" y2="250" style="stroke:#000000;stroke-width:2" />
  <g id="shower">
    <path id="pipe" style="stroke:#000000;stroke-width:2;fill:none;"
      d="M 125,80 C 125,40 170,40 180,70" />
    <path id="nozzle " style="stroke:#000000;stroke-width:2;fill:#000000;"
      d="M 180,70 L 175,90 L 195,85 L 180,70" />
    <ellipse id="drain" style="stroke:#000000;stroke-width:2;fill:#FFFFFF;"
      cx="200" cy="220" rx="12" ry="6" />
    <path id="waterDrops" style="stroke:#000000;stroke-width:2;stroke-dasharray:8,8;fill:none;"
      d="M 175,93 L 160,210 M 182,93 L 182,215 M 188,91 L 206,213 M 195,90 L 234,212" />
  </g>
</g>
</svg>
