<?xml version="1.0" standalone="no"?>
<svg width="250" height="250" version="1.1"
     xmlns="http://www.w3.org/2000/svg">

<g>
	<path d="M 36,180 L 218,180 L 218,205 L 55,205 z" />
	
	<path d="M 70,180 L 70,50 L 74,50 L 74,180 z" />
	<path d="M 110,180 L 110,20 L 114,20 L 114,180 z" />
	<path d="M 160,180 L 160,20 L 164,20 L 164,180 z" />
	<path d="M 200,180 L 200,50 L 204,50 L 204,180 z" style="stroke:#000000;stroke-width:2;fill:#FFFFFF;" />
</g>
</svg>