<?xml version="1.0" standalone="no"?>
<svg width="250" height="250" version="1.1"
     xmlns="http://www.w3.org/2000/svg">

<g>
	<path d="M 26,180 L 218,180 L 218,205 L 45,205 z" />
	<path d="M 190,20 L 35,175 L 200,160 z" style="stroke:#000000;stroke-width:2;fill:#FFFFFF;"/>
	<path d="M 95,180 L 95,100 L 97,100 L 97,180 z" />
	<path d="M 190,20 L 35,175" style="stroke:#000000;stroke-width:5" />
</g>
</svg>