<?xml version="1.0" standalone="no"?>
<svg width="250" height="250" version="1.1"
     xmlns="http://www.w3.org/2000/svg">

<g>
	<path id="rudder" style="stroke:#000000;stroke-width:2;"
		d="M 205,200 L 200,225 L 190,225 L 190,200" />
	<path id="belowWLhull" style="stroke:#000000;stroke-width:2;"
		d="M 55,200 L 210,200 C 200,215 150,210 150,230 L 100,230 Q 90,210 55,200" />
	<path id="aboveWLhull" style="stroke:#000000;stroke-width:2;fill:#FFFFFF;"
		d="M 55,200 Q 30,185 25,170 L 215,170 Q 215,200 210,200 L 55,200" />
	<path id="cabin" style="stroke:#000000;stroke-width:2;fill:#FFFFFF;"
		d="M 60,170 L 80,160 L 160,160 L 170,170 L 60,170" />
	<path id="mast" style="stroke:#000000;stroke-width:2;"
		d="M 95,160 L 95,10 L 98,10 L 98,160 L 95,160" />
	<path id="boom" style="stroke:#000000;stroke-width:2;"
		d="M 98,145 L 197,145 L 197,148 L 98,148 L 98,130" />
	<path id="mainsail" style="stroke:#000000;stroke-width:2;"
		d="M 98,10 L 197,145 L 98,145 L 98,10" />
	<path id="jib" style="stroke:#000000;stroke-width:2;"
		d="M 95,10 Q 80,100 95,137 Q 65,120 30,160 L 95,10" />

	<path id="stays" style="stroke:#000000;stroke-width:1; fill:none;"
		d="M 25,170 L 95,10 L98,10 L 215,170" />
</g>
</svg>