<?xml version="1.0" standalone="no"?>
<svg width="250" height="250" version="1.1"
     xmlns="http://www.w3.org/2000/svg">

	<g transform="scale(0.6)">
		<path d="M 36,180 L 218,180 L 218,205 L 55,205 z" />
		
		<path d="M 80,180 L 80,20 L 84,20 L 84,180 z" style="stroke:#000000;stroke-width:2;fill:#FFFFFF;" />
		<path d="M 175,180 L 175,50 L 179,50 L 179,180 z" />
	</g>
	
	<g transform="scale(0.6) translate(180,180)">
		<path d="M 36,180 L 218,180 L 218,205 L 55,205 z" />
		
		<path d="M 80,180 L 80,50 L 84,50 L 84,180 z" />
		<path d="M 175,180 L 175,20 L 179,20 L 179,180 z" style="stroke:#000000;stroke-width:2;fill:#FFFFFF;" />
	</g>
</svg>