<?xml version="1.0" standalone="no"?>
<svg width="250" height="250" version="1.1"
     xmlns="http://www.w3.org/2000/svg">

     <style type="text/css" >
      <![CDATA[

		.stem {
			fill: #00A530;
			stroke: #007720;
			stroke-width: 2.5;
			stroke-linejoin: miter;
		}

		.petal {
			fill: #DC143C;
			stroke: #99182C;
			stroke-width: 2.5;
			stroke-linejoin: miter;
		}

		]]>
    </style>

<g>
    <path id="napkin" style="stroke:#000000;stroke-width:1;fill:#FFFFFF;"
      d="M 24,194 C 23,183 24,134 25,111 C 38,107 65,107 79,109 C 79,126 80,172 78,196
      C 60,195 37,196 24,194"/>
    <path id="fork" style="stroke:#000000;stroke-width:1;fill:#FFFFFF;"
      d="M 51,190 L 46,186 L 47,181 L 49,179 L 49,145 Q 50,140 47,139 L 46,117 L 49,134 L 49,117 L 51,134
      L 53,117 L 53,134 L 56,117 L 55,139 Q 52,140 53,145 L 53,179 L 55,181 L 56,186 L 51,190"/>
    <path id="knife" style="stroke:#000000;stroke-width:1;fill:#FFFFFF;"
      d="M 193,177 L 193,106 C 193,103 187,106 187,114 C 186,117 186,133 189,144
        L 189,177 L 186,185 L 190,191 L 191,191 L 195,185 L 193,177"/>
    <path id="spoon" style="stroke:#000000;stroke-width:1;fill:#FFFFFF;"
      d="M 205,190 L 200,186 L 201,181 L 203,179 L 203,150 C 198,148 199,133 205,131
      C 211,133 212,148 207,150 L 207,179 L 209,181 L 210,186 L 205,190"/>
    <circle id="plateOuterRim" style="stroke:#000000;stroke-width:4;fill:#FFFFFF;"
        cx="127" cy="146" r="55" />
    <circle id="plateInnerRim" style="stroke:#000000;stroke-width:1;fill:#FFFFFF;"
        cx="127" cy="146" r="35" />
    <g id="goblet">
      <ellipse id="base" style="stroke:#000000;stroke-width:1;fill:#FFFFFF;"
        cx="189" cy="82" rx="16" ry="12"/>
      <rect id="stem" style="stroke:#000000;stroke-width:1;fill:#FFFFFF;"
        x="187" y="65" width="4" height="16" />
      <path id="bowl" style="stroke:#000000;stroke-width:1;fill:#FFFFFF;"
        d="M 173,43 C 173,54 179,63 187,67 L 191,67 C 199,63 205,54 205,43 z"/>
      <ellipse id="rim" style="stroke:#000000;stroke-width:1;fill:#FFFFFF;"
        cx="189" cy="43" rx="16" ry="10"/>
    </g>

    <g id="rose" transform="scale(-0.3,0.3) translate(-420,80) rotate(-15)">
      <!-- my little Easter Egg: Just for Mom.  -->
		<path id="leftleaf" class="stem"
			d="M 145,156 C 95,134 120,200 101,198 C 135,196 128,169 150,163"
		/>
		<path id="rightleaf" class="stem"
			d="M 140,148 C 145,125 185,130 195,124 C 196,145 167,161 145,155"
		/>
		<path id="crown" class="stem"
			d="M 112,98 L 137,112 L 119,106 L 128,118 L 102,106 L 107,124 L 99,115 L 102,148 L 93,114"
		/>
		<path id="thorns" class="stem"
			d="M 161,181 L 170,184 L 165,187
				M 169,202 L 163,212 L 174,211
				M 185,225 L 197,229 L 192,234"
		/>

		<path id="mainstem" class="stem"
			d="M 98,108 C 140,147 168,211 195,250 Q 195,240 200,240
				C 176,211 141,138 104,103 Z"
		/>

		<path class="petal"
			d="M 17,94 C -2,109 14,129 8,137 C 44,132 75,146 103,128 C 107,123 109,111 96,111"
		/>
		<path class="petal"
			d="M 44,28 Q 65,17 72,2 C 80,10 104,12 108,21 C 116,33 128,57 114,64"
		/>
		<path class="petal"
			d="M 106,111 C 133,98 113,73 114,64 Q 109,62 107,92"
		/>
		<path class="petal"
			d="M 10,77 Q 8,56 2,48 L 29,42"
		/>
		<path class="petal"
			d="M 44,28 C 57,28 78,26 87,39 C 93,49 106,53 112,67 L 60,69"
		/>
		<path class="petal"
			d="M 30,52 C 23,47 26,32 28,34 C 36,31 41,35 47,28 L 60,35"
		/>
		<path class="petal"
			d="M 30,107 C 21,96 8,85 8,79 C 10,66 18,50 33,48 Q 38,47 42,57 L 76,104"
		/>
		<path class="petal"
			d="M 57,98 L 105,85 Q 80,72 74,50 Q 72,77 57,98"
		/>
		<path class="petal"
			d="M 63,35 Q 86,60 113,66 Q 110,77 100,91 Q 75,68 63,35"
		/>
		<path class="petal"
			d="M 37,64 C 21,81 40,95 57,89"
		/>
		<path class="petal"
			d="M 63,35 C 48,34 33,48 34,58 C 36,76 45,90 52,87"
		/>
		<path class="petal"
			d="M 70,54 C 62,51 45,55 44,61 C 48,67 48,88 61,92 Q 75,75 70,54"
		/>
		<path class="petal"
			d="M 106,87 Q 120,131 53,120 Q 9,102 45,102 C 52,105 80,78 97,74 Q 106,74 106,87"
		/>
		<path class="petal"
			d="M 66,65 C 67,58 49,60 50,67 C 50,77 62,77 59,73 C 60,68 65,70 66,65"
		/>
	</g>

</g>
</svg>
