<?xml version="1.0" standalone="no"?>	
<svg width="250" height="250" version="1.1"
     xmlns="http://www.w3.org/2000/svg">

<g>
	<rect x="0" y="0" height="250" width="250" style="fill:#999999;" /> 

	<circle cx="50" cy="132" r="10" style="fill:#FF0000;" />
	<circle cx="200" cy="132" r="10" style="fill:#00FF00;" />
	<circle cx="125" cy="73" r="10" style="fill:#FFFFFF;" />
	<circle cx="50" cy="132" r="40" style="fill:#FF0000; fill-opacity:25%" />
	<circle cx="200" cy="132" r="40" style="fill:#00FF00; fill-opacity:25%" />
	<circle cx="125" cy="73" r="40" style="fill:#FFFFFF; fill-opacity:25%" />

	<path d="M 95,75 L 75,135 L 35,135 L 45,180 L 205,180 L 215,135 L 175,135 L 155,75 z" /> 	
</g>
</svg>