<?xml version="1.0" standalone="no"?>
<svg width="250" height="250" version="1.1"
     xmlns="http://www.w3.org/2000/svg">

<g>
	<path d="M 26,180 L 218,180 L 218,205 L 45,205 z" />
	<path d="M 75,180 L 75,20 L 77,20 L 77,180 z" />
	<path d="M 170,20 L 77,60 L 77,170 L 210,170 z"/>
	
	<circle cx="163" cy="30" r="5" style="fill: #FFFFFF" />
</g>
</svg>