<?xml version="1.0" standalone="no"?>
<svg width="250" height="250" version="1.1"
     xmlns="http://www.w3.org/2000/svg">

<g>
	<path d="M 25,125 Q 25,25 100,25 L 100,10 L 125,35 L 100,60 L 100,45 Q 45,45 45,125 z" 
		style="stroke:#000000;stroke-width:2;fill:#FFFFFF"/>
	<path d="M 25,125 Q 25,25 100,25 L 100,10 L 125,35 L 100,60 L 100,45 Q 45,45 45,125 z" 
		style="stroke:#000000;stroke-width:2;fill:#FFFFFF" transform="rotate(90 125 125)"/>
	<path d="M 25,125 Q 25,25 100,25 L 100,10 L 125,35 L 100,60 L 100,45 Q 45,45 45,125 z" 
		style="stroke:#000000;stroke-width:2;fill:#FFFFFF" transform="rotate(180 125 125)"/>
	<path d="M 25,125 Q 25,25 100,25 L 100,10 L 125,35 L 100,60 L 100,45 Q 45,45 45,125 z" 
		style="stroke:#000000;stroke-width:2;fill:#FFFFFF" transform="rotate(270 125 125)"/>
</g>
</svg>