<?xml version="1.0" standalone="no"?>
<svg width="250" height="250" version="1.1"
     xmlns="http://www.w3.org/2000/svg">

<defs>
	<pattern id="diagonalHatch" patternUnits="userSpaceOnUse" width="20" height="20">
		<path d="M -5,5 l 10,-10 M 0,20 l 20,-20 M 15,25 l 10,-10"
			style="stroke:#F5F5F5; stroke-width:5; stroke-opacity: 0.75" />
      <path d="M 15,-5 l 10,10 M 0,0 l 20,20 M -5,15 l 10,10"
  			style="stroke:#F5F5F5; stroke-width:5; stroke-opacity: 0.75" />
	</pattern>
</defs>

<g>
	<g id="spacePerspective">
		<path id="outerOutline" style="stroke:#000000;stroke-width:2;fill:none;"
			d="M 25,25 L 225,25 L 225,225 L 25,225 z" />
		<!-- Note that some of these elements produce redundant boundaries.
			They have been separated to allow individual shading -->
		<path id="rearWall" style="stroke:#000000;stroke-width:2;fill:none;"
			d="M 80,50 L 200,50 L 200,200 L 80,200 z" />
		<path id="leftWall" style="stroke:#000000;stroke-width:2;fill:url(#diagonalHatch);"
			d="M 25,25 L 80,50 L 80,200 L 25,225 z" />
		<path id="rightWall" style="stroke:#000000;stroke-width:2;fill:url(#diagonalHatch);"
			d="M 225,25 L 225,225 L 200,200 L 200,50 z" />
		<path id="deck" style="stroke:#000000;stroke-width:2;fill:url(#diagonalHatch);"
			d="M 25,225 L 80,200 L 200,200 L 225,225 z" />
		<path id="overhead" style="stroke:#000000;stroke-width:2;fill:url(#diagonalHatch);"
			d="M 25,25 L 225,25 L 200,50 L 80,50 z" />

	</g>

	<g id="stickMan" transform="translate(85,68) scale(1.5)">
		<circle id="head" cx="22" cy="11" r="10" style="stroke:#000000;stroke-width:1;fill:#999999;" />
		<ellipse id="rightHand" style="stroke:#000000;stroke-width:1;fill:#999999;"
			cx="5" cy="56" rx="3" ry="5" />
		<ellipse id="leftHand" style="stroke:#000000;stroke-width:1;fill:#999999;"
			cx="39" cy="56" rx="3" ry="5" />
		<path id="torsoArms" style="stroke:#000000;stroke-width:1;fill:#999999;"
			d="M 16,22 Q 22,27 28,22 C 36,24 42,43 42,53 L 36,53 C 37,46 35,37 32,34 L 32,50 Q 22,52 12,50
				L 12,34 C 9,37 7,46 8,53 L 2,53 C 2,43 8,24 16,22 z" />
		<path id="legs" style="stroke:#000000;stroke-width:1;fill:#999999;"
			d="M 12,52 Q 22,54 32,52 L 34,94 C 34,98 24,98 24,94 L 24,63 C 24,60 20,60 20,63
				L 20,94 C 20,98 10,98 10,94 L 12,53" />

	</g>

</g>
</svg>
