<?xml version="1.0" standalone="no"?>
<svg width="250" height="250" version="1.1"
     xmlns="http://www.w3.org/2000/svg">

<g>
	<path d="M 20,90 L 230,90 Q 230,130 210,130 C 80,140 30,120 20,90" />
	
	<path d="M 120,132 L 130,160 L 160,160 L 160,132" />
	<path d="M 210,130 L 210,150 L 225,150 L 220,127" />
	<path d="M 208,129 L 208,149 L 195,149 L 195,130 z"
		style="stroke:#000000;stroke-width:2;fill:#FFFFFF" />
	
	<path transform="scale(0.3) rotate(90 125 125) translate(450,-585)"
		d="M 25,125 Q 25,25 100,25 L 100,10 L 125,35 L 100,60 L 100,45 Q 45,45 45,125 z" 
		style="stroke:#000000;stroke-width:2;fill:#AAAAAA"/>
	<path transform="scale(0.3, -0.3) rotate(90 125 125) translate(-480,-585)"
		d="M 25,125 Q 25,25 100,25 L 100,10 L 125,35 L 100,60 L 100,45 Q 45,45 45,125 z" 
		style="stroke:#000000;stroke-width:2;fill:#AAAAAA"/>
	
</g>
</svg>