<?xml version="1.0" standalone="no"?>
<svg width="250" height="250" version="1.1"
     xmlns="http://www.w3.org/2000/svg">

<g>
	<path d="M 26,180 L 218,180 L 218,205 L 45,205 z" />
	<path d="M 100,180 L 100,20 L 102,20 L 102,180 z" />
	<path d="M 102,25 L 210,170 L 102,170" style="stroke:#000000;stroke-width:2;fill:#FFFFFF;"/>
	<path d="M 100,25 L 28,180 Q 60,170 90,170 z" style="stroke:#000000;stroke-width:2;fill:#FFFFFF;" />
</g>
</svg>