<?xml version="1.0" standalone="no"?>
<svg width="250" height="250" version="1.1"
     xmlns="http://www.w3.org/2000/svg">

<g>
	<g transform="rotate(-35) translate(-100,50)">
	
	<ellipse style="stroke:#000000;stroke-width:1;fill:#FFFFFF;"
		cx="125" cy="230" rx="8" ry="2" />
	<rect style="stroke:#000000;stroke-width:1;fill:#FFFFFF;"
		x="117" y="20" height="210" width="16" />
	<ellipse style="stroke:#000000;stroke-width:1;fill:#FFFFFF;"
		cx="125" cy="20" rx="8" ry="2" />
	<rect style="stroke:#000000;stroke-width:1;fill:#000000;"
		x="125" y="23" height="207" width="3" />
	
	</g>
</g>
</svg>