<?xml version="1.0" standalone="no"?>
<svg width="250" height="250" version="1.1"
     xmlns="http://www.w3.org/2000/svg">

<g>
	<path style="stroke:#000000;stroke-width:2;fill:#FFFFFF"
		d="M 28,51 L 51,28 L 125,102 L 199,28 L 222,51 L 148,125 L 222,199 L 199,222
			L 125,148 L 51,222 L 28,199 L 102,125 L 28,51" />
</g>
</svg>