<?xml version="1.0" standalone="no"?>
<svg width="250" height="250" version="1.1"
     xmlns="http://www.w3.org/2000/svg">

<g>
	<path d="M 25,25 Q 150,100 225,225 L 25,225 z"/>
	
	<!-- telltales -->
	<path d="M 75,125 C 100,123 85,132 110,130" style="stroke:#FF0000; stroke-width:2;" />
	<path d="M 90,160 C 110,157 115,172 125,170" style="stroke:#0000FF; stroke-width:2;" />
	
</g>
</svg>