{
	"key":"bilge",
	"breadcrumbs": [
		{ "key":"home", "text":"Home" },
		{ "key":"parts", "text":"Parts" },
		{ "key":"level_interior", "text":"Interior" },
		{ "key":"is_space", "text":"Room or Space" },
		{ "key":"bilge", "text":"Bilge" }
	],
	"explainer":"The area inside the very bottom of a boat, usually a small and cramped space, is called the <i>Bilge</i>.",
	"question":"",
	"steps": null
}