{
	"key":"block",
	"breadcrumbs": [
		{ "key":"home", "text":"Home" },
		{ "key":"parts", "text":"Parts" },
		{ "key":"level_deck", "text":"On the Deck" },
		{ "key":"rigging_aid", "text":"Rigging Aid" },
		{ "key":"rigging_around", "text": "Rigging Runs Around" },
		{ "key":"block", "text": "Block" }
	],
	"explainer": "This item is called a <i>Block</i>.  It is the nautical equivalent of a pulley.",
	"question":"",
	"steps": null
}