{
	"key":"bollard",
	"breadcrumbs": [
		{ "key":"home", "text":"Home" },
		{ "key":"parts", "text":"Parts" },
		{ "key":"level_deck", "text":"On the Deck" },
		{ "key":"rigging_aid", "text":"Rigging Aid" },
		{ "key":"rigging_tied", "text": "Riggin Tied to It" },
		{ "key":"bollard", "text": "Bollard" }
	],
	"explainer": "This item is called a <i>Bollard</i>.",
	"question":"",
	"steps": null
}