{
	"key":"boom",
	"breadcrumbs": [
		{ "key":"home", "text":"Home" },
		{ "key":"parts", "text":"Parts" },
		{ "key":"level_top", "text":"Above Deck" },
		{ "key":"spars", "text":"Spars" },
		{ "key":"other_spar", "text":"Not a Mast" },
		{ "key":"boom", "text":"Boom" }
	],
	"explainer":"This part is called a <i>Boom</i>.",
	"question":"",
	"steps": null
}