{
	"key":"bowsprit",
	"breadcrumbs": [
		{ "key":"home", "text":"Home" },
		{ "key":"parts", "text":"Parts" },
		{ "key":"level_top", "text":"Above Deck" },
		{ "key":"spars", "text":"Spars" },
		{ "key":"other_spar", "text":"Not a Mast" },
		{ "key":"bowsprit", "text":"Bowsprit" }
	],
	"explainer":"This part is called a <i>Bowsprit</i>.",
	"question":"",
	"steps": null
}