{
	"key":"cockpit",
	"breadcrumbs": [
		{ "key":"home", "text":"Home" },
		{ "key":"parts", "text":"Parts" },
		{ "key":"level_deck", "text":"On the Deck" },
		{ "key":"nonrigging_aid", "text":"Not an Aid to Rigging" },
		{ "key":"deck_other", "text":"Other" },
		{ "key": "cockpit", "text":"Cockpit" }
	],
	"explainer":"This are is the <i>Cockpit</i>.",
	"question":"It was called a cockpit on boats long before airplanes.",
	"steps": null
}