{
	"key":"corner_triangle",
	"breadcrumbs": [
		{ "key":"home", "text":"Home" },
		{ "key":"parts", "text":"Parts" },
		{ "key":"level_top", "text":"Above Deck" },
		{ "key":"sailsegment", "text":"Sail Segments" },
		{ "key":"corner", "text":"Corner" },
		{ "key":"corner_triangle", "text":"Triangular" }
	],
	"explainer":"What to call a corner of a triangular sail.",
	"question":"Which corner?",
	"steps": [
		{ "key":"head_tri", "text":"The top corner." },
		{ "key":"tack_tri", "text":"The lower front corner." },
		{ "key":"clew_tri", "text":"The lower aft corner." }
	]
}