{
	"key":"deck",
	"breadcrumbs": [
		{ "key":"home", "text":"Home" },
		{ "key":"parts", "text":"Parts" },
		{ "key":"level_interior", "text":"Interior" },
		{ "key":"seperate_spaces", "text":"Separates Spaces" },
		{ "key":"deck", "text":"Deck" }
	],
	"explainer":"The nautical term for a floor is <i>Deck</i>.",
	"question":"",
	"steps": null
}