{
	"key":"fairlead",
	"breadcrumbs": [
		{ "key":"home", "text":"Home" },
		{ "key":"parts", "text":"Parts" },
		{ "key":"level_deck", "text":"On the Deck" },
		{ "key":"rigging_aid", "text":"Rigging Aid" },
		{ "key":"rigging_around", "text": "Rigging Runs Around" },
		{ "key":"fairlead", "text": "Farilead" }
	],
	"explainer": "This item is called a <i>Fairlead</i>.",
	"question":"",
	"steps": null
}