{
	"key":"flotsam_jetsam",
	"breadcrumbs": [
		{ "key":"home", "text":"Home" },
		{ "key":"parts", "text":"Parts" },
		{ "key":"level_deck", "text":"On the Deck" },
		{ "key":"nonrigging_aid", "text":"Not an Aid to Rigging" },
		{ "key":"deck_other", "text":"Other" },
		{ "key":"flotsam_jetsam", "text":"Flotsam and Jetsam" }
	],
	"explainer":"Sorry, but there are many, many things aboard a boat this could be, and this app cannot possibly cover them all.  So we are going to call this just miscellany, or <i>Flotsam and Jetsam</i>.",
	"question":"If you feel you can improve the classification of whatever got you to this point, feel free to send your feedback to the author.  Thank you.",
	"steps": null
}