{
	"key":"foot_square",
	"breadcrumbs": [
		{ "key":"home", "text":"Home" },
		{ "key":"parts", "text":"Parts" },
		{ "key":"level_top", "text":"Above Deck" },
		{ "key":"sailsegment", "text":"Sail Segments" },
		{ "key":"edge", "text":"Edge" },
		{ "key":"edge_square", "text":"Square Rig" },
		{ "key":"foot_square", "text":"Foot" }
	],
	"explainer":"This edge is called the <i>Foot</i>.",
	"question":"",
	"steps": null
}