{
	"key":"gaffe",
	"breadcrumbs": [
		{ "key":"home", "text":"Home" },
		{ "key":"parts", "text":"Parts" },
		{ "key":"level_top", "text":"Above Deck" },
		{ "key":"spars", "text":"Spars" },
		{ "key":"other_spar", "text":"Not a Mast" },
		{ "key":"gaffe", "text":"Gaffe" }
	],
	"explainer":"This part is called a <i>Gaffe</i>.",
	"question":"",
	"steps": null
}