{
	"key":"grommet",
	"breadcrumbs": [
		{ "key":"home", "text":"Home" },
		{ "key":"parts", "text":"Parts" },
		{ "key":"level_top", "text":"Above Deck" },
		{ "key":"sailsegment", "text":"Sail Segments" },
		{ "key":"attachment", "text":"Attachments" },
		{ "key":"grommet", "text":"Grommet" }
	],
	"explainer":"These re-enforced holes are called <i>Grommets</i>.  They allow things to be tied to the sail.",
	"question":"",
	"steps": null
}