{
	"key":"ketch",
	"breadcrumbs": [
		{ "key":"home", "text":"Home" },
		{ "key":"vessels", "text":"Vessels" },
		{ "key":"mast_two", "text": "Two Masts" },
		{ "key":"foreaft_two", "text": "All Fore-Aft" },
		{ "key":"ketch", "text":"Ketch" }
	],
	"explainer":"This type of sailing vessel is called a <i>Ketch</i>.",
	"question":"",
	"steps": null
}