{
	"key":"leech_quad",
	"breadcrumbs": [
		{ "key":"home", "text":"Home" },
		{ "key":"parts", "text":"Parts" },
		{ "key":"level_top", "text":"Above Deck" },
		{ "key":"sailsegment", "text":"Sail Segments" },
		{ "key":"edge", "text":"Edge" },
		{ "key":"edge_quad", "text":"Quadrilateral" },
		{ "key":"leech_tri", "text":"Leech" }
	],
	"explainer":"This edge is called the <i>Leech</i>.",
	"question":"",
	"steps": null
}