{
	"key":"luff_tri",
	"breadcrumbs": [
		{ "key":"home", "text":"Home" },
		{ "key":"parts", "text":"Parts" },
		{ "key":"level_top", "text":"Above Deck" },
		{ "key":"sailsegment", "text":"Sail Segments" },
		{ "key":"edge", "text":"Edge" },
		{ "key":"edge_triangle", "text":"Triangular" },
		{ "key":"luff_tri", "text":"Luff" }
	],
	"explainer":"This edge is called the <i>Luff</i>.",
	"question":"",
	"steps": null
}