{
	"key":"lug",
	"breadcrumbs": [
		{ "key":"home", "text":"Home" },
		{ "key":"vessels", "text":"Vessels" },
		{ "key":"mast_one", "text": "One Mast" },
		{ "key":"foreaft_one", "text": "Fore-Aft Rigged" },
		{ "key":"catboat", "text":"Cat Boat" },
		{ "key":"lug", "text":"Lug Rig" }
	],
	"explainer":"This type of sail rig is called a <i>Lug</i> rig.  The sail can be called a <i>Lug Sail</i>.",
	"question":"",
	"steps": null
}