{
	"key":"mainmast_lone",
	"breadcrumbs": [
		{ "key":"home", "text":"Home" },
		{ "key":"parts", "text":"Parts" },
		{ "key":"level_top", "text":"Above Deck" },
		{ "key":"spars", "text":"Spars" },
		{ "key":"mast", "text":"Mast" },
		{ "key":"mainmast_lone", "text":"Main Mast" }
	],
	"explainer":"This mast is called the <i>Main Mast</i>.",
	"question":"",
	"steps": null
}