{
	"key":"mast_many",
	"breadcrumbs": [
		{ "key":"home", "text":"Home" },
		{ "key":"vessels", "text":"Vessels" },
		{ "key":"mast_many", "text": "Three+ Masts" }
	],
	"explainer":"Types of Sailboat, with three or more masts.",
	"question":"Are all of your sails fore-and-aft, or are some of them square rigged?",
	"steps": [
		{ "key":"schooner_three", "text":"They are all fore-and-aft." },
		{ "key":"square_many", "text":"Some of them are square rigged." }
	]
}