{
	"key":"recesses",
	"breadcrumbs": [
		{ "key":"home", "text":"Home" },
		{ "key":"parts", "text":"Parts" },
		{ "key":"level_underwater", "text":"Below Waterline" },
		{ "key":"recesses", "text":"Recesses In" }
	],
	"explainer":"Parts that recess into the hull.",
	"question":"What shape is it, more or less?",
	"steps": [
		{ "key":"trunk", "text":"A long narrow rectangle." },
		{ "key":"through_hull", "text":"A small circle or oval." }
	]
}