{
	"key":"rigging_around",
	"breadcrumbs": [
		{ "key":"home", "text":"Home" },
		{ "key":"parts", "text":"Parts" },
		{ "key":"level_deck", "text":"On the Deck" },
		{ "key":"rigging_aid", "text":"Rigging Aid" },
		{ "key":"rigging_around", "text": "Rigging Runs Around" }
	],
	"explainer":"Parts on deck that rigging runs around or through, to change direction.",
	"question":"What shape is it?",
	"steps": [
		{ "key":"padeye", "text":"Like a donut (or half a donut)." },
		{ "key":"fairlead", "text":"Like an hourglass." },
		{ "key":"block", "text":"Like a wheel or pulley." },
		{ "key":"chock", "text":"It has a hole or gap running horizontally through its center." },
		{ "key":"hawse", "text":"It is a hole running through the edge of the deck." }
	]
}