{
	"key":"sheet",
	"breadcrumbs": [
		{ "key":"home", "text":"Home" },
		{ "key":"parts", "text":"Parts" },
		{ "key":"level_top", "text":"Above Deck" },
		{ "key":"rigging", "text":"Rigging" },
		{ "key":"runningrigging", "text":"Running Rigging" },
		{ "key":"sheet", "text":"Sheet" }
	],
	"explainer":"This part is called a <i>Sheet</i>.",
	"question":"It is also named for the sail it moves, i.e. the fore topsail is adjusted by a fore top sheet.  See the <a href=\"index.html?key=sails\">sails</a> section.",
	"steps": null
}