{
	"key":"simplesail",
	"breadcrumbs": [
		{ "key":"home", "text":"Home" },
		{ "key":"parts", "text":"Parts" },
		{ "key":"level_top", "text":"Above Deck" },
		{ "key":"sails", "text":"Sails" },
		{ "key":"foreaft_sail", "text":"Fore-and-Aft" },
		{ "key":"primarysail", "text":"Primary Sails" },
		{ "key":"simplesail", "text":"Sail" }
	],
	"explainer":"Sometimes a sail is simply a sail.",
	"question":"Such a sail would be named for the mast it flies from, such as fore sail, main sail, or mizzen sail. See the <a href=\"index.html?key=mast\">mast</a> section.",
	"steps": null
}