{
	"key":"square_two",
	"breadcrumbs": [
		{ "key":"home", "text":"Home" },
		{ "key":"vessels", "text":"Vessels" },
		{ "key":"mast_two", "text": "Two Masts" },
		{ "key":"square_two", "text": "Square Sails" }
	],
	"explainer":"Types of Sailboat, with two masts and some sails are square rigged.",
	"question":"Is the taller mast fully square rigged?",
	"steps": [
		{ "key":"brig", "text":"Yes." },
		{ "key":"brigantine", "text":"Partially." },
		{ "key":"hermaphrodite", "text":"No." }
	]
}