{
	"key":"tack_quad",
	"breadcrumbs": [
		{ "key":"home", "text":"Home" },
		{ "key":"parts", "text":"Parts" },
		{ "key":"level_top", "text":"Above Deck" },
		{ "key":"sailsegment", "text":"Sail Segments" },
		{ "key":"corner", "text":"Corner" },
		{ "key":"corner_quad", "text":"Quadrilateral" },
		{ "key":"tack_quad", "text":"Tack" }
	],
	"explainer":"This corner is called the <i>Tack</i>.",
	"question":"",
	"steps": null
}