{
	"key":"winch",
	"breadcrumbs": [
		{ "key":"home", "text":"Home" },
		{ "key":"parts", "text":"Parts" },
		{ "key":"level_deck", "text":"On the Deck" },
		{ "key":"rigging_aid", "text":"Rigging Aid" },
		{ "key":"rigging_tension", "text":"Rigging Under Tension" },
		{ "key":"winch", "text":"Winch" }
	],
	"explainer":"This is called a <i>Winch</i>.",
	"question":"",
	"steps": null
}