<svg xmlns="http://www.w3.org/2000/svg"
   height="100" width="450" id="svg59" version="1.1" class="header__svg-logo" >
    <defs id="defs9">
      <linearGradient gradientUnits="userSpaceOnUse" y2="89.48" x2="32.99" y1="65.26" x1="64.01" id="logo-gradient">
          <stop id="stop4" stop-color="#0052cc" offset=".18"/>
          <stop id="stop6" stop-color="#2684ff" offset="1"/>
      </linearGradient>
      <style id="style2">.logo__text__fill{fill:#253858}</style>
    </defs>

	
    <g id="g17" class="header__svg-logo__icon">
      <path id="path13" d="M2 41.25a2 2 0 00-2 2.32l8.49 51.54a2.72 2.72 0 002.66 2.27h40.73a2 2 0 002-1.68l8.51-52.11a2 2 0 00-2-2.32zM37.75 78.5h-13l-3.52-18.38H40.9z" fill="#2684ff"/>
      <path id="path15" d="M59.67 60.12H40.9L37.75 78.5h-13L9.4 96.73a2.71 2.71 0 001.75.66h40.74a2 2 0 002-1.68z" fill="url(#logo-gradient)"/>
    </g>
    <g id="g37" class="header__svg-logo__atlassian svg-hide-on-stuck">
      <path id="path19" d="M160.49 5.22c0 2.6 1.21 4.66 5.92 5.57 2.81.59 3.4 1 3.4 2s-.59 1.5-2.57 1.5a14.51 14.51 0 01-6.83-1.85v4.23a14 14 0 006.78 1.47c4.93 0
        6.88-2.2 6.88-5.46m0 0c0-3.08-1.63-4.53-6.24-5.52-2.54-.56-3.16-1.12-3.16-1.93 0-1 .91-1.45 2.6-1.45a14.63 14.63 0 015.95 1.47v-4A13.44 13.44 0 00167.39
        0c-4.55 0-6.91 2-6.91 5.22" class="logo__text__fill"/>
      <path id="polygon21" class="logo__text__fill" d="M227.54 17.86V4.45l1.58 3.56 5.31
        9.85h4.71V.27h-3.75v11.35l-1.42-3.29-4.26-8.06h-5.92v17.59z"/>
      <path id="rect23" class="logo__text__fill" d="M195.85.27h4.1v17.6h-4.1z"/>
      <path id="path25" d="M191.12 12.67c0-3.08-1.63-4.53-6.24-5.52-2.54-.56-3.16-1.12-3.16-1.93 0-1 .91-1.45 2.6-1.45a14.63 14.63 0 015.95 1.47v-4A13.44 13.44
         0 00184.45 0c-4.55 0-6.91 2-6.91 5.22 0 2.6 1.21 4.66 5.92 5.57 2.81.59 3.4 1 3.4 2s-.59 1.5-2.57 1.5a14.51 14.51 0 01-6.83-1.85v4.23a14 14 0 006.78
         1.47c4.93 0 6.88-2.2 6.88-5.46" class="logo__text__fill"/>
      <path id="polygon27" class="logo__text__fill" d="M137.08 17.86l1.32-3.8h-5.62V.27h-4.13v17.59z"/>
      <path id="polygon29" class="logo__text__fill" d="M116.57 4.07v13.79h4.12V4.07h4.87V.27h-13.55v3.8z"/>
      <path id="path31" d="M106 .27h-5.4l-6.14 17.6h4.69l.87-3a11.65 11.65 0 006.56 0l.87 3h4.69zm-2.7 11.46a8 8 0 01-2.25-.32l2.25-7.68 2.25 7.68a8 8 0 01-2.22.32z"
        class="logo__text__fill"/>
      <path id="path33" d="M151.6.27h-5.4l-6.14 17.6h4.69l.87-3a11.65 11.65 0 006.56 0l.87 3h4.69zm-2.7 11.46a8 8 0 01-2.25-.32l2.25-7.68 2.25 7.68a8 8 0 01-2.26.32z"
         class="logo__text__fill"/>
      <path id="path35" d="M214.71.27h-5.4l-6.14 17.6h4.69l.87-3a11.65 11.65 0 006.56 0l.87 3h4.69zM212 11.73a8 8 0 01-2.25-.32L212 3.72l2.25 7.68a8 8 0 01-2.25.33z"
         class="logo__text__fill"/>
    </g>
    <g id="g57" class="header__svg-logo__text">
      <path id="path39" d="M116.87 39.57c11.79 0 17.51 5.81 17.51 15.14 0 7-3.17 11.26-9.68 12.85 8.54 1.41 12.76 6.07 12.76 14.26 0 9.24-6.25 15.58-19.18
         15.58H94.43V39.57zm-14.52 7.57v17.24h13.46c7.48 0 10.56-3.43 10.56-9s-3.34-8.27-10.56-8.27zm0 24.29v18h16.19c7.57 0 11-2.73 11-8.54 0-6.16-3.26-9.5-11.17-9.5z"
          class="logo__text__fill"/>
      <path id="path41" d="M150.4 36.49a4.94 4.94 0 015.28 5.28 5.28 5.28 0 01-10.56 0 4.94 4.94 0 015.28-5.28zm-3.87 16.89h7.57v44h-7.57z"
        class="logo__text__fill"/>
      <path id="path43" d="M183 90a24 24 0 004.75-.62v7.3a18.19 18.19 0 01-5.1.7c-9.42 0-14-5.54-14-13.73V60.42h-7.13v-7h7.13v-9.36H176v9.33h11.7v7H176v23.09c0
         3.87 2.29 6.52 7 6.52z" class="logo__text__fill"/>
      <path id="path45" d="M218.95 98.26c-6.42 0-11.35-2.9-14-8.62v7.74h-7.57V35H205v26.3c2.82-5.81 8.1-8.8 14.87-8.8 11.7 0 17.6 9.94 17.6 22.88-.04 12.41-6.2 22.88-18.52
         22.88zm-1.15-38.72c-6.8 0-12.8 4.32-12.8 14.08v3.52c0 9.77 5.54 14.08 12 14.08 8.54 0 12.94-5.63 12.94-15.84-.08-10.56-4.3-15.84-12.14-15.84z" class="logo__text__fill"/>
      <path id="path47" d="M245.35 53.38h7.57V80c0 7.92 3.17 11.44 10.38 11.44 7 0 11.88-4.66 11.88-13.55V53.38h7.57v44h-7.57v-7.21a15.43 15.43 0 01-13.9 8.1c-10.12
         0-15.93-7-15.93-19.1z" class="logo__text__fill"/>
      <path id="path49" d="M325.25 96.24c-2.64 1.41-6.69 2-10.74 2-15.66 0-23-9.5-23-23 0-13.29 7.3-22.79 23-22.79A23.26 23.26 0 01325 54.62v7a22.18 22.18 0
         00-10-2.08c-11.44 0-16.1 7.22-16.1 15.75 0 8.53 4.79 15.71 16.32 15.71a27.8 27.8 0 0010-1.58z" class="logo__text__fill"/>
      <path id="path51" d="M333.88 97.38V35h7.57v39l18.92-20.59h9.86L349.54 75l21.56 22.38h-10.3l-19.36-20.59v20.59z" class="logo__text__fill"/>
      <path id="path53" d="M396.18 98.26c-16.46 0-23.67-9.5-23.67-23 0-13.29 7.39-22.79 20.77-22.79 13.55 0 19 9.42 19 22.79v3.43h-32.12c1.06 7.48 5.9
         12.32 16.28 12.32a39 39 0 0013.38-2.38v7c-3.61 1.93-9.15 2.63-13.64 2.63zm-16.1-26h24.55c-.44-8.18-4.14-12.85-11.7-12.85-8.02-.04-12.06 5.15-12.85 12.81z"
          class="logo__text__fill"/>
      <path id="path55" d="M438.68 90a24 24 0 004.75-.62v7.3a18.19 18.19 0 01-5.1.7c-9.42 0-14-5.54-14-13.73V60.42h-7.13v-7h7.13v-9.36h7.39v9.33h11.7v7h-11.7v23.09c.01
         3.87 2.28 6.52 6.96 6.52z" class="logo__text__fill"/>
   </g>

</svg>
