<?xml version="1.0" standalone="no"?>
<svg width="20" height="40" version="1.1"
     xmlns="http://www.w3.org/2000/svg">
<g>
	<rect x="0" y="0" height="40" width="25" style="fill:#757575;" />
	<path d="M 2,-3 L 17,20 L 2,43"	style="stroke:#FFFFFF;stroke-width:5;fill:none;" />
</g>
</svg>